<?xml version="1.0"?>
<gpx xmlns="http://www.topografix.com/GPX/1/1" xmlns:xsi="http://www.w3.org/2001/XMLSchema-instance" version="1.1" creator="AllTrails.com" xsi:schemaLocation="http://www.topografix.com/GPX/1/1 http://www.topografix.com/GPX/1/1/gpx.xsd">
  <metadata>
    <name><![CDATA[Юдино (вдоль Щепки)]]></name>
    <desc><![CDATA[]]></desc>
    <link href="http://www.alltrails.com">
      <text>AllTrails, LLC</text>
    </link>
    <bounds minlat="47.29443" minlon="39.65835" maxlat="47.48841" maxlon="39.7446"/>
  </metadata>
  <trk>
    <name><![CDATA[Юдино (вдоль Щепки)]]></name>
    <src>AllTrails</src>
    <trkseg>
      <trkpt lat="47.29443" lon="39.71385">
        <ele>76.02</ele>
      </trkpt>
      <trkpt lat="47.29476" lon="39.71381">
        <ele>63.76</ele>
      </trkpt>
      <trkpt lat="47.29489" lon="39.71382">
        <ele>64.4</ele>
      </trkpt>
      <trkpt lat="47.29501" lon="39.71411">
        <ele>63.6</ele>
      </trkpt>
      <trkpt lat="47.2953" lon="39.71467">
        <ele>66.43</ele>
      </trkpt>
      <trkpt lat="47.29532" lon="39.71507">
        <ele>69.91</ele>
      </trkpt>
      <trkpt lat="47.29552" lon="39.71505">
        <ele>70.66</ele>
      </trkpt>
      <trkpt lat="47.29564" lon="39.71501">
        <ele>74.31</ele>
      </trkpt>
      <trkpt lat="47.29568" lon="39.71509">
        <ele>75.6</ele>
      </trkpt>
      <trkpt lat="47.2958" lon="39.71522">
        <ele>79.89</ele>
      </trkpt>
      <trkpt lat="47.29591" lon="39.71532">
        <ele>83.01</ele>
      </trkpt>
      <trkpt lat="47.29596" lon="39.71546">
        <ele>83.69</ele>
      </trkpt>
      <trkpt lat="47.29598" lon="39.71563">
        <ele>83.4</ele>
      </trkpt>
      <trkpt lat="47.29606" lon="39.71566">
        <ele>84.86</ele>
      </trkpt>
      <trkpt lat="47.29616" lon="39.71565">
        <ele>86.62</ele>
      </trkpt>
      <trkpt lat="47.29627" lon="39.71575">
        <ele>86.79</ele>
      </trkpt>
      <trkpt lat="47.29629" lon="39.71597">
        <ele>84.0</ele>
      </trkpt>
      <trkpt lat="47.29632" lon="39.71623">
        <ele>80.93</ele>
      </trkpt>
      <trkpt lat="47.29647" lon="39.71662">
        <ele>78.55</ele>
      </trkpt>
      <trkpt lat="47.2966" lon="39.71678">
        <ele>78.63</ele>
      </trkpt>
      <trkpt lat="47.2968" lon="39.717">
        <ele>76.37</ele>
      </trkpt>
      <trkpt lat="47.29695" lon="39.71716">
        <ele>77.89</ele>
      </trkpt>
      <trkpt lat="47.29706" lon="39.71734">
        <ele>81.49</ele>
      </trkpt>
      <trkpt lat="47.29714" lon="39.71758">
        <ele>84.6</ele>
      </trkpt>
      <trkpt lat="47.29733" lon="39.71794">
        <ele>90.72</ele>
      </trkpt>
      <trkpt lat="47.29786" lon="39.71792">
        <ele>88.49</ele>
      </trkpt>
      <trkpt lat="47.29829" lon="39.72155">
        <ele>82.38</ele>
      </trkpt>
      <trkpt lat="47.29843" lon="39.72161">
        <ele>83.97</ele>
      </trkpt>
      <trkpt lat="47.29859" lon="39.72258">
        <ele>91.39</ele>
      </trkpt>
      <trkpt lat="47.29869" lon="39.72266">
        <ele>91.21</ele>
      </trkpt>
      <trkpt lat="47.30024" lon="39.72225">
        <ele>92.1</ele>
      </trkpt>
      <trkpt lat="47.30066" lon="39.72221">
        <ele>88.93</ele>
      </trkpt>
      <trkpt lat="47.30072" lon="39.72256">
        <ele>89.86</ele>
      </trkpt>
      <trkpt lat="47.30085" lon="39.72268">
        <ele>89.45</ele>
      </trkpt>
      <trkpt lat="47.30125" lon="39.72268">
        <ele>85.35</ele>
      </trkpt>
      <trkpt lat="47.30129" lon="39.72305">
        <ele>81.77</ele>
      </trkpt>
      <trkpt lat="47.30139" lon="39.72324">
        <ele>78.32</ele>
      </trkpt>
      <trkpt lat="47.30152" lon="39.72326">
        <ele>75.45</ele>
      </trkpt>
      <trkpt lat="47.30247" lon="39.72296">
        <ele>72.62</ele>
      </trkpt>
      <trkpt lat="47.30256" lon="39.72287">
        <ele>74.78</ele>
      </trkpt>
      <trkpt lat="47.3034" lon="39.72267">
        <ele>79.39</ele>
      </trkpt>
      <trkpt lat="47.30481" lon="39.72243">
        <ele>81.7</ele>
      </trkpt>
      <trkpt lat="47.30503" lon="39.72252">
        <ele>83.82</ele>
      </trkpt>
      <trkpt lat="47.30654" lon="39.72462">
        <ele>79.5</ele>
      </trkpt>
      <trkpt lat="47.30771" lon="39.7261">
        <ele>80.6</ele>
      </trkpt>
      <trkpt lat="47.30878" lon="39.72763">
        <ele>69.72</ele>
      </trkpt>
      <trkpt lat="47.30962" lon="39.72875">
        <ele>77.26</ele>
      </trkpt>
      <trkpt lat="47.31023" lon="39.72952">
        <ele>83.06</ele>
      </trkpt>
      <trkpt lat="47.31108" lon="39.73047">
        <ele>85.35</ele>
      </trkpt>
      <trkpt lat="47.32149" lon="39.74454">
        <ele>92.77</ele>
      </trkpt>
      <trkpt lat="47.32163" lon="39.7446">
        <ele>92.99</ele>
      </trkpt>
      <trkpt lat="47.32411" lon="39.74102">
        <ele>90.08</ele>
      </trkpt>
      <trkpt lat="47.32445" lon="39.74087">
        <ele>88.29</ele>
      </trkpt>
      <trkpt lat="47.32797" lon="39.74036">
        <ele>98.66</ele>
      </trkpt>
      <trkpt lat="47.33799" lon="39.73742">
        <ele>86.06</ele>
      </trkpt>
      <trkpt lat="47.35226" lon="39.73158">
        <ele>103.87</ele>
      </trkpt>
      <trkpt lat="47.35508" lon="39.73021">
        <ele>86.52</ele>
      </trkpt>
      <trkpt lat="47.36638" lon="39.72379">
        <ele>80.37</ele>
      </trkpt>
      <trkpt lat="47.36647" lon="39.72375">
        <ele>80.94</ele>
      </trkpt>
      <trkpt lat="47.36665" lon="39.72376">
        <ele>81.91</ele>
      </trkpt>
      <trkpt lat="47.36678" lon="39.72386">
        <ele>82.45</ele>
      </trkpt>
      <trkpt lat="47.36701" lon="39.72386">
        <ele>82.84</ele>
      </trkpt>
      <trkpt lat="47.36717" lon="39.72381">
        <ele>82.24</ele>
      </trkpt>
      <trkpt lat="47.36728" lon="39.72353">
        <ele>81.67</ele>
      </trkpt>
      <trkpt lat="47.36744" lon="39.72327">
        <ele>80.57</ele>
      </trkpt>
      <trkpt lat="47.37157" lon="39.72077">
        <ele>70.36</ele>
      </trkpt>
      <trkpt lat="47.37194" lon="39.72098">
        <ele>59.66</ele>
      </trkpt>
      <trkpt lat="47.38159" lon="39.72731">
        <ele>76.14</ele>
      </trkpt>
      <trkpt lat="47.38493" lon="39.7284">
        <ele>59.54</ele>
      </trkpt>
      <trkpt lat="47.3863" lon="39.72886">
        <ele>60.06</ele>
      </trkpt>
      <trkpt lat="47.38746" lon="39.72933">
        <ele>56.52</ele>
      </trkpt>
      <trkpt lat="47.39085" lon="39.73109">
        <ele>62.68</ele>
      </trkpt>
      <trkpt lat="47.39308" lon="39.73226">
        <ele>77.88</ele>
      </trkpt>
      <trkpt lat="47.39524" lon="39.73292">
        <ele>79.26</ele>
      </trkpt>
      <trkpt lat="47.39552" lon="39.73307">
        <ele>79.62</ele>
      </trkpt>
      <trkpt lat="47.39652" lon="39.73389">
        <ele>76.08</ele>
      </trkpt>
      <trkpt lat="47.39751" lon="39.73458">
        <ele>77.08</ele>
      </trkpt>
      <trkpt lat="47.40984" lon="39.73444">
        <ele>99.12</ele>
      </trkpt>
      <trkpt lat="47.40974" lon="39.71957">
        <ele>95.8</ele>
      </trkpt>
      <trkpt lat="47.42727" lon="39.71952">
        <ele>102.31</ele>
      </trkpt>
      <trkpt lat="47.42742" lon="39.72287">
        <ele>103.46</ele>
      </trkpt>
      <trkpt lat="47.44228" lon="39.72253">
        <ele>36.39</ele>
      </trkpt>
      <trkpt lat="47.44254" lon="39.72223">
        <ele>39.1</ele>
      </trkpt>
      <trkpt lat="47.44283" lon="39.72176">
        <ele>36.22</ele>
      </trkpt>
      <trkpt lat="47.44548" lon="39.72137">
        <ele>12.71</ele>
      </trkpt>
      <trkpt lat="47.44603" lon="39.72064">
        <ele>16.07</ele>
      </trkpt>
      <trkpt lat="47.44675" lon="39.71965">
        <ele>12.53</ele>
      </trkpt>
      <trkpt lat="47.44736" lon="39.71952">
        <ele>16.5</ele>
      </trkpt>
      <trkpt lat="47.44791" lon="39.71884">
        <ele>14.41</ele>
      </trkpt>
      <trkpt lat="47.44916" lon="39.71776">
        <ele>17.42</ele>
      </trkpt>
      <trkpt lat="47.44963" lon="39.71729">
        <ele>15.92</ele>
      </trkpt>
      <trkpt lat="47.44983" lon="39.71738">
        <ele>13.48</ele>
      </trkpt>
      <trkpt lat="47.45035" lon="39.71678">
        <ele>11.1</ele>
      </trkpt>
      <trkpt lat="47.45052" lon="39.71648">
        <ele>10.74</ele>
      </trkpt>
      <trkpt lat="47.45067" lon="39.71601">
        <ele>10.58</ele>
      </trkpt>
      <trkpt lat="47.45073" lon="39.715">
        <ele>13.86</ele>
      </trkpt>
      <trkpt lat="47.45067" lon="39.7144">
        <ele>13.37</ele>
      </trkpt>
      <trkpt lat="47.45054" lon="39.71349">
        <ele>15.38</ele>
      </trkpt>
      <trkpt lat="47.45045" lon="39.71289">
        <ele>13.92</ele>
      </trkpt>
      <trkpt lat="47.4505" lon="39.71216">
        <ele>13.44</ele>
      </trkpt>
      <trkpt lat="47.4506" lon="39.71204">
        <ele>12.67</ele>
      </trkpt>
      <trkpt lat="47.45084" lon="39.71204">
        <ele>10.9</ele>
      </trkpt>
      <trkpt lat="47.45093" lon="39.71171">
        <ele>11.45</ele>
      </trkpt>
      <trkpt lat="47.45129" lon="39.7101">
        <ele>8.23</ele>
      </trkpt>
      <trkpt lat="47.45124" lon="39.70892">
        <ele>7.11</ele>
      </trkpt>
      <trkpt lat="47.45126" lon="39.70536">
        <ele>5.02</ele>
      </trkpt>
      <trkpt lat="47.45128" lon="39.70474">
        <ele>6.67</ele>
      </trkpt>
      <trkpt lat="47.45138" lon="39.70433">
        <ele>6.44</ele>
      </trkpt>
      <trkpt lat="47.45138" lon="39.70367">
        <ele>7.22</ele>
      </trkpt>
      <trkpt lat="47.45113" lon="39.70315">
        <ele>9.3</ele>
      </trkpt>
      <trkpt lat="47.45058" lon="39.70313">
        <ele>9.98</ele>
      </trkpt>
      <trkpt lat="47.44994" lon="39.70309">
        <ele>14.24</ele>
      </trkpt>
      <trkpt lat="47.44857" lon="39.7042">
        <ele>32.97</ele>
      </trkpt>
      <trkpt lat="47.44833" lon="39.70456">
        <ele>34.37</ele>
      </trkpt>
      <trkpt lat="47.44826" lon="39.70494">
        <ele>35.27</ele>
      </trkpt>
      <trkpt lat="47.44817" lon="39.70478">
        <ele>35.5</ele>
      </trkpt>
      <trkpt lat="47.44793" lon="39.70438">
        <ele>34.81</ele>
      </trkpt>
      <trkpt lat="47.44778" lon="39.70421">
        <ele>33.01</ele>
      </trkpt>
      <trkpt lat="47.44688" lon="39.70424">
        <ele>43.12</ele>
      </trkpt>
      <trkpt lat="47.44644" lon="39.70419">
        <ele>43.85</ele>
      </trkpt>
      <trkpt lat="47.44588" lon="39.70417">
        <ele>41.71</ele>
      </trkpt>
      <trkpt lat="47.4457" lon="39.70399">
        <ele>37.07</ele>
      </trkpt>
      <trkpt lat="47.44559" lon="39.70353">
        <ele>41.72</ele>
      </trkpt>
      <trkpt lat="47.44558" lon="39.70323">
        <ele>42.85</ele>
      </trkpt>
      <trkpt lat="47.44565" lon="39.70292">
        <ele>42.47</ele>
      </trkpt>
      <trkpt lat="47.44578" lon="39.70265">
        <ele>42.12</ele>
      </trkpt>
      <trkpt lat="47.44707" lon="39.7019">
        <ele>33.67</ele>
      </trkpt>
      <trkpt lat="47.4472" lon="39.70169">
        <ele>36.45</ele>
      </trkpt>
      <trkpt lat="47.44725" lon="39.70147">
        <ele>38.32</ele>
      </trkpt>
      <trkpt lat="47.44713" lon="39.69882">
        <ele>41.25</ele>
      </trkpt>
      <trkpt lat="47.44702" lon="39.69751">
        <ele>32.27</ele>
      </trkpt>
      <trkpt lat="47.44685" lon="39.69708">
        <ele>34.05</ele>
      </trkpt>
      <trkpt lat="47.44676" lon="39.69675">
        <ele>36.88</ele>
      </trkpt>
      <trkpt lat="47.44676" lon="39.69649">
        <ele>37.63</ele>
      </trkpt>
      <trkpt lat="47.44683" lon="39.69603">
        <ele>35.77</ele>
      </trkpt>
      <trkpt lat="47.44688" lon="39.69559">
        <ele>31.71</ele>
      </trkpt>
      <trkpt lat="47.4468" lon="39.69492">
        <ele>29.87</ele>
      </trkpt>
      <trkpt lat="47.44672" lon="39.69453">
        <ele>28.83</ele>
      </trkpt>
      <trkpt lat="47.44678" lon="39.6942">
        <ele>24.58</ele>
      </trkpt>
      <trkpt lat="47.44691" lon="39.69382">
        <ele>26.02</ele>
      </trkpt>
      <trkpt lat="47.44705" lon="39.69359">
        <ele>29.56</ele>
      </trkpt>
      <trkpt lat="47.44718" lon="39.69341">
        <ele>31.91</ele>
      </trkpt>
      <trkpt lat="47.44725" lon="39.69316">
        <ele>35.08</ele>
      </trkpt>
      <trkpt lat="47.44744" lon="39.69296">
        <ele>36.51</ele>
      </trkpt>
      <trkpt lat="47.44759" lon="39.69301">
        <ele>37.27</ele>
      </trkpt>
      <trkpt lat="47.44791" lon="39.69326">
        <ele>36.7</ele>
      </trkpt>
      <trkpt lat="47.44834" lon="39.69356">
        <ele>31.82</ele>
      </trkpt>
      <trkpt lat="47.44867" lon="39.69362">
        <ele>30.28</ele>
      </trkpt>
      <trkpt lat="47.44889" lon="39.69374">
        <ele>37.08</ele>
      </trkpt>
      <trkpt lat="47.44915" lon="39.69398">
        <ele>35.64</ele>
      </trkpt>
      <trkpt lat="47.44958" lon="39.6941">
        <ele>40.82</ele>
      </trkpt>
      <trkpt lat="47.44989" lon="39.69414">
        <ele>46.05</ele>
      </trkpt>
      <trkpt lat="47.45017" lon="39.69422">
        <ele>46.15</ele>
      </trkpt>
      <trkpt lat="47.4505" lon="39.69439">
        <ele>39.18</ele>
      </trkpt>
      <trkpt lat="47.45102" lon="39.69428">
        <ele>36.77</ele>
      </trkpt>
      <trkpt lat="47.45153" lon="39.69399">
        <ele>37.11</ele>
      </trkpt>
      <trkpt lat="47.45185" lon="39.69358">
        <ele>37.24</ele>
      </trkpt>
      <trkpt lat="47.45206" lon="39.69312">
        <ele>37.02</ele>
      </trkpt>
      <trkpt lat="47.45243" lon="39.69138">
        <ele>34.32</ele>
      </trkpt>
      <trkpt lat="47.45255" lon="39.69099">
        <ele>35.46</ele>
      </trkpt>
      <trkpt lat="47.45276" lon="39.69042">
        <ele>32.13</ele>
      </trkpt>
      <trkpt lat="47.45289" lon="39.69013">
        <ele>32.66</ele>
      </trkpt>
      <trkpt lat="47.45297" lon="39.68972">
        <ele>34.54</ele>
      </trkpt>
      <trkpt lat="47.45298" lon="39.68931">
        <ele>35.21</ele>
      </trkpt>
      <trkpt lat="47.45319" lon="39.68878">
        <ele>37.39</ele>
      </trkpt>
      <trkpt lat="47.45407" lon="39.68463">
        <ele>38.16</ele>
      </trkpt>
      <trkpt lat="47.45414" lon="39.68193">
        <ele>36.06</ele>
      </trkpt>
      <trkpt lat="47.4537" lon="39.67639">
        <ele>39.31</ele>
      </trkpt>
      <trkpt lat="47.45334" lon="39.6706">
        <ele>36.86</ele>
      </trkpt>
      <trkpt lat="47.45285" lon="39.66979">
        <ele>40.76</ele>
      </trkpt>
      <trkpt lat="47.45302" lon="39.6691">
        <ele>41.59</ele>
      </trkpt>
      <trkpt lat="47.45302" lon="39.66839">
        <ele>39.23</ele>
      </trkpt>
      <trkpt lat="47.45263" lon="39.66627">
        <ele>42.3</ele>
      </trkpt>
      <trkpt lat="47.45216" lon="39.66445">
        <ele>42.78</ele>
      </trkpt>
      <trkpt lat="47.4517" lon="39.663">
        <ele>42.98</ele>
      </trkpt>
      <trkpt lat="47.45306" lon="39.66213">
        <ele>39.61</ele>
      </trkpt>
      <trkpt lat="47.45333" lon="39.66194">
        <ele>38.03</ele>
      </trkpt>
      <trkpt lat="47.4536" lon="39.66205">
        <ele>37.95</ele>
      </trkpt>
      <trkpt lat="47.45383" lon="39.66215">
        <ele>36.25</ele>
      </trkpt>
      <trkpt lat="47.45405" lon="39.66245">
        <ele>35.92</ele>
      </trkpt>
      <trkpt lat="47.45468" lon="39.66275">
        <ele>37.57</ele>
      </trkpt>
      <trkpt lat="47.45491" lon="39.66302">
        <ele>33.05</ele>
      </trkpt>
      <trkpt lat="47.45536" lon="39.66329">
        <ele>33.55</ele>
      </trkpt>
      <trkpt lat="47.45537" lon="39.66357">
        <ele>35.94</ele>
      </trkpt>
      <trkpt lat="47.45531" lon="39.6632">
        <ele>33.4</ele>
      </trkpt>
      <trkpt lat="47.45507" lon="39.66307">
        <ele>32.23</ele>
      </trkpt>
      <trkpt lat="47.45486" lon="39.66291">
        <ele>34.04</ele>
      </trkpt>
      <trkpt lat="47.45554" lon="39.66107">
        <ele>31.58</ele>
      </trkpt>
      <trkpt lat="47.45555" lon="39.65915">
        <ele>20.86</ele>
      </trkpt>
      <trkpt lat="47.45572" lon="39.65921">
        <ele>23.02</ele>
      </trkpt>
      <trkpt lat="47.45613" lon="39.65929">
        <ele>23.55</ele>
      </trkpt>
      <trkpt lat="47.45647" lon="39.65928">
        <ele>17.06</ele>
      </trkpt>
      <trkpt lat="47.45681" lon="39.65918">
        <ele>9.54</ele>
      </trkpt>
      <trkpt lat="47.45779" lon="39.65932">
        <ele>9.51</ele>
      </trkpt>
      <trkpt lat="47.45801" lon="39.65924">
        <ele>8.43</ele>
      </trkpt>
      <trkpt lat="47.45857" lon="39.65885">
        <ele>7.28</ele>
      </trkpt>
      <trkpt lat="47.45895" lon="39.65879">
        <ele>6.42</ele>
      </trkpt>
      <trkpt lat="47.45925" lon="39.65885">
        <ele>5.56</ele>
      </trkpt>
      <trkpt lat="47.45952" lon="39.65894">
        <ele>5.22</ele>
      </trkpt>
      <trkpt lat="47.45997" lon="39.65955">
        <ele>5.91</ele>
      </trkpt>
      <trkpt lat="47.46006" lon="39.65962">
        <ele>6.06</ele>
      </trkpt>
      <trkpt lat="47.46017" lon="39.65954">
        <ele>5.81</ele>
      </trkpt>
      <trkpt lat="47.46029" lon="39.65912">
        <ele>6.04</ele>
      </trkpt>
      <trkpt lat="47.46041" lon="39.65895">
        <ele>6.48</ele>
      </trkpt>
      <trkpt lat="47.46056" lon="39.65883">
        <ele>7.47</ele>
      </trkpt>
      <trkpt lat="47.46225" lon="39.65835">
        <ele>7.09</ele>
      </trkpt>
      <trkpt lat="47.46252" lon="39.6584">
        <ele>7.78</ele>
      </trkpt>
      <trkpt lat="47.46268" lon="39.65863">
        <ele>7.6</ele>
      </trkpt>
      <trkpt lat="47.4628" lon="39.65902">
        <ele>7.72</ele>
      </trkpt>
      <trkpt lat="47.46286" lon="39.65936">
        <ele>6.9</ele>
      </trkpt>
      <trkpt lat="47.46287" lon="39.66003">
        <ele>5.66</ele>
      </trkpt>
      <trkpt lat="47.46286" lon="39.66089">
        <ele>7.39</ele>
      </trkpt>
      <trkpt lat="47.46305" lon="39.66173">
        <ele>6.98</ele>
      </trkpt>
      <trkpt lat="47.46334" lon="39.66312">
        <ele>6.46</ele>
      </trkpt>
      <trkpt lat="47.46386" lon="39.66481">
        <ele>7.97</ele>
      </trkpt>
      <trkpt lat="47.46409" lon="39.66581">
        <ele>7.25</ele>
      </trkpt>
      <trkpt lat="47.46432" lon="39.66677">
        <ele>7.22</ele>
      </trkpt>
      <trkpt lat="47.46444" lon="39.66727">
        <ele>8.34</ele>
      </trkpt>
      <trkpt lat="47.46486" lon="39.669">
        <ele>11.31</ele>
      </trkpt>
      <trkpt lat="47.46509" lon="39.6705">
        <ele>7.52</ele>
      </trkpt>
      <trkpt lat="47.46518" lon="39.67075">
        <ele>7.86</ele>
      </trkpt>
      <trkpt lat="47.4653" lon="39.67094">
        <ele>8.79</ele>
      </trkpt>
      <trkpt lat="47.46539" lon="39.67102">
        <ele>8.06</ele>
      </trkpt>
      <trkpt lat="47.46557" lon="39.67105">
        <ele>6.79</ele>
      </trkpt>
      <trkpt lat="47.4658" lon="39.67104">
        <ele>6.97</ele>
      </trkpt>
      <trkpt lat="47.4661" lon="39.67092">
        <ele>6.34</ele>
      </trkpt>
      <trkpt lat="47.47089" lon="39.66884">
        <ele>8.08</ele>
      </trkpt>
      <trkpt lat="47.47323" lon="39.67088">
        <ele>9.43</ele>
      </trkpt>
      <trkpt lat="47.47361" lon="39.6709">
        <ele>9.52</ele>
      </trkpt>
      <trkpt lat="47.47416" lon="39.67082">
        <ele>10.1</ele>
      </trkpt>
      <trkpt lat="47.47462" lon="39.67095">
        <ele>11.63</ele>
      </trkpt>
      <trkpt lat="47.47481" lon="39.67101">
        <ele>13.0</ele>
      </trkpt>
      <trkpt lat="47.47489" lon="39.67126">
        <ele>12.35</ele>
      </trkpt>
      <trkpt lat="47.47489" lon="39.67163">
        <ele>9.52</ele>
      </trkpt>
      <trkpt lat="47.47498" lon="39.67186">
        <ele>10.45</ele>
      </trkpt>
      <trkpt lat="47.47526" lon="39.67291">
        <ele>12.89</ele>
      </trkpt>
      <trkpt lat="47.47567" lon="39.67449">
        <ele>9.17</ele>
      </trkpt>
      <trkpt lat="47.47572" lon="39.67492">
        <ele>8.47</ele>
      </trkpt>
      <trkpt lat="47.47573" lon="39.6752">
        <ele>8.98</ele>
      </trkpt>
      <trkpt lat="47.4757" lon="39.67556">
        <ele>9.05</ele>
      </trkpt>
      <trkpt lat="47.47516" lon="39.67776">
        <ele>8.49</ele>
      </trkpt>
      <trkpt lat="47.47522" lon="39.67968">
        <ele>8.79</ele>
      </trkpt>
      <trkpt lat="47.47529" lon="39.67986">
        <ele>8.57</ele>
      </trkpt>
      <trkpt lat="47.47751" lon="39.68221">
        <ele>9.28</ele>
      </trkpt>
      <trkpt lat="47.47757" lon="39.68278">
        <ele>10.49</ele>
      </trkpt>
      <trkpt lat="47.47798" lon="39.68422">
        <ele>11.0</ele>
      </trkpt>
      <trkpt lat="47.4781" lon="39.68446">
        <ele>11.35</ele>
      </trkpt>
      <trkpt lat="47.47918" lon="39.68602">
        <ele>9.75</ele>
      </trkpt>
      <trkpt lat="47.47934" lon="39.68633">
        <ele>9.8</ele>
      </trkpt>
      <trkpt lat="47.47951" lon="39.68673">
        <ele>10.0</ele>
      </trkpt>
      <trkpt lat="47.47963" lon="39.68705">
        <ele>9.49</ele>
      </trkpt>
      <trkpt lat="47.47986" lon="39.68817">
        <ele>10.86</ele>
      </trkpt>
      <trkpt lat="47.4802" lon="39.68922">
        <ele>8.61</ele>
      </trkpt>
      <trkpt lat="47.4803" lon="39.68948">
        <ele>10.03</ele>
      </trkpt>
      <trkpt lat="47.48037" lon="39.68963">
        <ele>9.89</ele>
      </trkpt>
      <trkpt lat="47.48068" lon="39.69017">
        <ele>11.58</ele>
      </trkpt>
      <trkpt lat="47.48111" lon="39.69103">
        <ele>13.71</ele>
      </trkpt>
      <trkpt lat="47.48134" lon="39.69319">
        <ele>12.35</ele>
      </trkpt>
      <trkpt lat="47.48141" lon="39.69346">
        <ele>11.9</ele>
      </trkpt>
      <trkpt lat="47.48183" lon="39.69381">
        <ele>16.48</ele>
      </trkpt>
      <trkpt lat="47.4823" lon="39.69413">
        <ele>20.32</ele>
      </trkpt>
      <trkpt lat="47.48253" lon="39.69431">
        <ele>21.96</ele>
      </trkpt>
      <trkpt lat="47.48271" lon="39.69445">
        <ele>23.49</ele>
      </trkpt>
      <trkpt lat="47.48287" lon="39.69454">
        <ele>24.95</ele>
      </trkpt>
      <trkpt lat="47.48298" lon="39.69461">
        <ele>24.12</ele>
      </trkpt>
      <trkpt lat="47.48327" lon="39.69471">
        <ele>20.72</ele>
      </trkpt>
      <trkpt lat="47.48407" lon="39.6947">
        <ele>18.12</ele>
      </trkpt>
      <trkpt lat="47.48426" lon="39.69454">
        <ele>17.67</ele>
      </trkpt>
      <trkpt lat="47.48434" lon="39.69463">
        <ele>17.96</ele>
      </trkpt>
      <trkpt lat="47.48413" lon="39.69542">
        <ele>11.33</ele>
      </trkpt>
      <trkpt lat="47.48367" lon="39.69711">
        <ele>18.22</ele>
      </trkpt>
      <trkpt lat="47.48328" lon="39.69851">
        <ele>16.82</ele>
      </trkpt>
      <trkpt lat="47.4832" lon="39.69862">
        <ele>19.85</ele>
      </trkpt>
      <trkpt lat="47.48309" lon="39.69869">
        <ele>23.47</ele>
      </trkpt>
      <trkpt lat="47.48295" lon="39.69885">
        <ele>26.81</ele>
      </trkpt>
      <trkpt lat="47.48287" lon="39.69899">
        <ele>28.25</ele>
      </trkpt>
      <trkpt lat="47.48282" lon="39.69927">
        <ele>29.51</ele>
      </trkpt>
      <trkpt lat="47.48287" lon="39.69954">
        <ele>28.88</ele>
      </trkpt>
      <trkpt lat="47.48305" lon="39.69977">
        <ele>29.27</ele>
      </trkpt>
      <trkpt lat="47.48324" lon="39.69991">
        <ele>25.14</ele>
      </trkpt>
      <trkpt lat="47.48347" lon="39.70003">
        <ele>27.69</ele>
      </trkpt>
      <trkpt lat="47.48362" lon="39.70011">
        <ele>30.14</ele>
      </trkpt>
      <trkpt lat="47.4838" lon="39.70016">
        <ele>29.76</ele>
      </trkpt>
      <trkpt lat="47.48462" lon="39.70009">
        <ele>27.54</ele>
      </trkpt>
      <trkpt lat="47.48513" lon="39.69998">
        <ele>28.65</ele>
      </trkpt>
      <trkpt lat="47.48523" lon="39.69992">
        <ele>29.64</ele>
      </trkpt>
      <trkpt lat="47.48531" lon="39.69981">
        <ele>29.33</ele>
      </trkpt>
      <trkpt lat="47.48534" lon="39.69965">
        <ele>28.0</ele>
      </trkpt>
      <trkpt lat="47.48537" lon="39.69945">
        <ele>26.7</ele>
      </trkpt>
      <trkpt lat="47.48539" lon="39.69916">
        <ele>25.99</ele>
      </trkpt>
      <trkpt lat="47.48545" lon="39.69891">
        <ele>26.62</ele>
      </trkpt>
      <trkpt lat="47.48557" lon="39.69876">
        <ele>29.61</ele>
      </trkpt>
      <trkpt lat="47.48603" lon="39.69866">
        <ele>30.29</ele>
      </trkpt>
      <trkpt lat="47.48639" lon="39.69852">
        <ele>28.01</ele>
      </trkpt>
      <trkpt lat="47.48698" lon="39.6983">
        <ele>26.63</ele>
      </trkpt>
      <trkpt lat="47.48766" lon="39.69751">
        <ele>24.59</ele>
      </trkpt>
      <trkpt lat="47.488" lon="39.69703">
        <ele>26.0</ele>
      </trkpt>
      <trkpt lat="47.48834" lon="39.69629">
        <ele>27.17</ele>
      </trkpt>
      <trkpt lat="47.48841" lon="39.69512">
        <ele>22.93</ele>
      </trkpt>
      <trkpt lat="47.48838" lon="39.69384">
        <ele>25.01</ele>
      </trkpt>
      <trkpt lat="47.48834" lon="39.69204">
        <ele>18.99</ele>
      </trkpt>
      <trkpt lat="47.48839" lon="39.69117">
        <ele>17.57</ele>
      </trkpt>
      <trkpt lat="47.48821" lon="39.691">
        <ele>16.64</ele>
      </trkpt>
      <trkpt lat="47.48839" lon="39.69116">
        <ele>17.58</ele>
      </trkpt>
      <trkpt lat="47.48836" lon="39.69225">
        <ele>20.67</ele>
      </trkpt>
      <trkpt lat="47.48836" lon="39.69378">
        <ele>24.15</ele>
      </trkpt>
      <trkpt lat="47.4884" lon="39.69517">
        <ele>22.55</ele>
      </trkpt>
      <trkpt lat="47.48831" lon="39.69629">
        <ele>27.01</ele>
      </trkpt>
      <trkpt lat="47.48796" lon="39.697">
        <ele>26.0</ele>
      </trkpt>
      <trkpt lat="47.48764" lon="39.69758">
        <ele>24.64</ele>
      </trkpt>
      <trkpt lat="47.48699" lon="39.69824">
        <ele>26.56</ele>
      </trkpt>
      <trkpt lat="47.48647" lon="39.69851">
        <ele>27.54</ele>
      </trkpt>
      <trkpt lat="47.4856" lon="39.69882">
        <ele>29.95</ele>
      </trkpt>
      <trkpt lat="47.48549" lon="39.69894">
        <ele>27.87</ele>
      </trkpt>
      <trkpt lat="47.4854" lon="39.6991">
        <ele>25.9</ele>
      </trkpt>
      <trkpt lat="47.48534" lon="39.69973">
        <ele>28.6</ele>
      </trkpt>
      <trkpt lat="47.48515" lon="39.70004">
        <ele>29.28</ele>
      </trkpt>
      <trkpt lat="47.48463" lon="39.70017">
        <ele>28.58</ele>
      </trkpt>
      <trkpt lat="47.4838" lon="39.7002">
        <ele>30.29</ele>
      </trkpt>
      <trkpt lat="47.48347" lon="39.7001">
        <ele>28.19</ele>
      </trkpt>
      <trkpt lat="47.48297" lon="39.69972">
        <ele>29.07</ele>
      </trkpt>
      <trkpt lat="47.48285" lon="39.69942">
        <ele>29.43</ele>
      </trkpt>
      <trkpt lat="47.48281" lon="39.69921">
        <ele>29.57</ele>
      </trkpt>
      <trkpt lat="47.48277" lon="39.69909">
        <ele>29.59</ele>
      </trkpt>
      <trkpt lat="47.48258" lon="39.69861">
        <ele>25.27</ele>
      </trkpt>
      <trkpt lat="47.48242" lon="39.6983">
        <ele>20.84</ele>
      </trkpt>
      <trkpt lat="47.48194" lon="39.69703">
        <ele>14.64</ele>
      </trkpt>
      <trkpt lat="47.48147" lon="39.69535">
        <ele>12.15</ele>
      </trkpt>
      <trkpt lat="47.48133" lon="39.69496">
        <ele>10.89</ele>
      </trkpt>
      <trkpt lat="47.48086" lon="39.69464">
        <ele>15.84</ele>
      </trkpt>
      <trkpt lat="47.48032" lon="39.69499">
        <ele>18.21</ele>
      </trkpt>
      <trkpt lat="47.47977" lon="39.69508">
        <ele>12.86</ele>
      </trkpt>
      <trkpt lat="47.47961" lon="39.69496">
        <ele>12.14</ele>
      </trkpt>
      <trkpt lat="47.47958" lon="39.69487">
        <ele>12.47</ele>
      </trkpt>
      <trkpt lat="47.47751" lon="39.69139">
        <ele>16.02</ele>
      </trkpt>
      <trkpt lat="47.47701" lon="39.69013">
        <ele>15.7</ele>
      </trkpt>
      <trkpt lat="47.47665" lon="39.68865">
        <ele>10.88</ele>
      </trkpt>
      <trkpt lat="47.47642" lon="39.6874">
        <ele>17.47</ele>
      </trkpt>
      <trkpt lat="47.47622" lon="39.68709">
        <ele>18.78</ele>
      </trkpt>
      <trkpt lat="47.476" lon="39.68694">
        <ele>19.79</ele>
      </trkpt>
      <trkpt lat="47.47522" lon="39.68581">
        <ele>13.67</ele>
      </trkpt>
      <trkpt lat="47.47422" lon="39.684">
        <ele>11.0</ele>
      </trkpt>
      <trkpt lat="47.47361" lon="39.68266">
        <ele>13.41</ele>
      </trkpt>
      <trkpt lat="47.47345" lon="39.68241">
        <ele>12.26</ele>
      </trkpt>
      <trkpt lat="47.47343" lon="39.68233">
        <ele>12.04</ele>
      </trkpt>
      <trkpt lat="47.47302" lon="39.68062">
        <ele>8.33</ele>
      </trkpt>
      <trkpt lat="47.4728" lon="39.68003">
        <ele>11.53</ele>
      </trkpt>
      <trkpt lat="47.47258" lon="39.67967">
        <ele>11.42</ele>
      </trkpt>
      <trkpt lat="47.4722" lon="39.67931">
        <ele>10.55</ele>
      </trkpt>
      <trkpt lat="47.47187" lon="39.67889">
        <ele>10.73</ele>
      </trkpt>
      <trkpt lat="47.47142" lon="39.67755">
        <ele>10.07</ele>
      </trkpt>
      <trkpt lat="47.47119" lon="39.67706">
        <ele>10.75</ele>
      </trkpt>
      <trkpt lat="47.47112" lon="39.67596">
        <ele>9.49</ele>
      </trkpt>
      <trkpt lat="47.4711" lon="39.6752">
        <ele>8.32</ele>
      </trkpt>
      <trkpt lat="47.47017" lon="39.67515">
        <ele>8.21</ele>
      </trkpt>
      <trkpt lat="47.46989" lon="39.67499">
        <ele>8.01</ele>
      </trkpt>
      <trkpt lat="47.4694" lon="39.67374">
        <ele>7.91</ele>
      </trkpt>
      <trkpt lat="47.46939" lon="39.67347">
        <ele>8.1</ele>
      </trkpt>
      <trkpt lat="47.46945" lon="39.67328">
        <ele>7.76</ele>
      </trkpt>
      <trkpt lat="47.46946" lon="39.67308">
        <ele>6.92</ele>
      </trkpt>
      <trkpt lat="47.46947" lon="39.67272">
        <ele>5.95</ele>
      </trkpt>
      <trkpt lat="47.46937" lon="39.67145">
        <ele>9.17</ele>
      </trkpt>
      <trkpt lat="47.46904" lon="39.6696">
        <ele>9.37</ele>
      </trkpt>
      <trkpt lat="47.46585" lon="39.67093">
        <ele>6.96</ele>
      </trkpt>
      <trkpt lat="47.46566" lon="39.671">
        <ele>6.75</ele>
      </trkpt>
      <trkpt lat="47.46535" lon="39.67103">
        <ele>8.4</ele>
      </trkpt>
      <trkpt lat="47.46508" lon="39.67038">
        <ele>7.92</ele>
      </trkpt>
      <trkpt lat="47.46506" lon="39.66988">
        <ele>9.0</ele>
      </trkpt>
      <trkpt lat="47.4649" lon="39.66923">
        <ele>10.62</ele>
      </trkpt>
      <trkpt lat="47.46464" lon="39.66801">
        <ele>10.93</ele>
      </trkpt>
      <trkpt lat="47.46402" lon="39.66564">
        <ele>7.16</ele>
      </trkpt>
      <trkpt lat="47.4629" lon="39.66091">
        <ele>7.21</ele>
      </trkpt>
      <trkpt lat="47.46293" lon="39.6595">
        <ele>6.35</ele>
      </trkpt>
      <trkpt lat="47.46285" lon="39.65892">
        <ele>8.3</ele>
      </trkpt>
      <trkpt lat="47.46271" lon="39.6586">
        <ele>7.77</ele>
      </trkpt>
      <trkpt lat="47.46234" lon="39.6584">
        <ele>7.32</ele>
      </trkpt>
      <trkpt lat="47.4621" lon="39.65846">
        <ele>7.44</ele>
      </trkpt>
      <trkpt lat="47.46065" lon="39.65873">
        <ele>8.53</ele>
      </trkpt>
      <trkpt lat="47.46014" lon="39.65937">
        <ele>5.76</ele>
      </trkpt>
      <trkpt lat="47.46005" lon="39.65939">
        <ele>6.02</ele>
      </trkpt>
      <trkpt lat="47.45967" lon="39.65905">
        <ele>4.75</ele>
      </trkpt>
      <trkpt lat="47.45942" lon="39.65888">
        <ele>5.06</ele>
      </trkpt>
      <trkpt lat="47.45915" lon="39.65879">
        <ele>5.7</ele>
      </trkpt>
      <trkpt lat="47.45907" lon="39.65869">
        <ele>5.63</ele>
      </trkpt>
      <trkpt lat="47.45894" lon="39.65868">
        <ele>6.06</ele>
      </trkpt>
      <trkpt lat="47.45877" lon="39.65871">
        <ele>6.63</ele>
      </trkpt>
      <trkpt lat="47.45817" lon="39.659">
        <ele>9.12</ele>
      </trkpt>
      <trkpt lat="47.45805" lon="39.65916">
        <ele>8.07</ele>
      </trkpt>
      <trkpt lat="47.45778" lon="39.65927">
        <ele>9.36</ele>
      </trkpt>
      <trkpt lat="47.45704" lon="39.65918">
        <ele>7.8</ele>
      </trkpt>
      <trkpt lat="47.4563" lon="39.65923">
        <ele>20.06</ele>
      </trkpt>
      <trkpt lat="47.45589" lon="39.65922">
        <ele>24.18</ele>
      </trkpt>
      <trkpt lat="47.45555" lon="39.6591">
        <ele>20.5</ele>
      </trkpt>
      <trkpt lat="47.45512" lon="39.65883">
        <ele>20.02</ele>
      </trkpt>
      <trkpt lat="47.4548" lon="39.65871">
        <ele>22.56</ele>
      </trkpt>
      <trkpt lat="47.45451" lon="39.6588">
        <ele>22.95</ele>
      </trkpt>
      <trkpt lat="47.45387" lon="39.66029">
        <ele>31.44</ele>
      </trkpt>
      <trkpt lat="47.45355" lon="39.661">
        <ele>34.16</ele>
      </trkpt>
      <trkpt lat="47.4533" lon="39.66176">
        <ele>38.7</ele>
      </trkpt>
      <trkpt lat="47.4531" lon="39.6619">
        <ele>38.87</ele>
      </trkpt>
      <trkpt lat="47.45271" lon="39.66237">
        <ele>43.93</ele>
      </trkpt>
      <trkpt lat="47.45176" lon="39.66292">
        <ele>42.98</ele>
      </trkpt>
      <trkpt lat="47.44896" lon="39.66457">
        <ele>43.76</ele>
      </trkpt>
      <trkpt lat="47.44173" lon="39.66809">
        <ele>76.47</ele>
      </trkpt>
      <trkpt lat="47.43738" lon="39.67034">
        <ele>99.73</ele>
      </trkpt>
      <trkpt lat="47.43516" lon="39.67146">
        <ele>119.52</ele>
      </trkpt>
      <trkpt lat="47.43471" lon="39.67159">
        <ele>117.85</ele>
      </trkpt>
      <trkpt lat="47.43378" lon="39.67161">
        <ele>124.18</ele>
      </trkpt>
      <trkpt lat="47.43267" lon="39.67189">
        <ele>120.78</ele>
      </trkpt>
      <trkpt lat="47.43156" lon="39.67233">
        <ele>110.46</ele>
      </trkpt>
      <trkpt lat="47.42741" lon="39.67368">
        <ele>108.89</ele>
      </trkpt>
      <trkpt lat="47.42712" lon="39.67381">
        <ele>105.26</ele>
      </trkpt>
      <trkpt lat="47.42668" lon="39.67391">
        <ele>110.34</ele>
      </trkpt>
      <trkpt lat="47.42264" lon="39.67519">
        <ele>126.43</ele>
      </trkpt>
      <trkpt lat="47.41777" lon="39.67572">
        <ele>92.64</ele>
      </trkpt>
      <trkpt lat="47.41326" lon="39.67629">
        <ele>94.03</ele>
      </trkpt>
      <trkpt lat="47.41017" lon="39.67667">
        <ele>98.56</ele>
      </trkpt>
      <trkpt lat="47.4048" lon="39.67833">
        <ele>89.03</ele>
      </trkpt>
      <trkpt lat="47.40327" lon="39.67865">
        <ele>75.16</ele>
      </trkpt>
      <trkpt lat="47.40243" lon="39.67869">
        <ele>88.82</ele>
      </trkpt>
      <trkpt lat="47.39831" lon="39.67794">
        <ele>82.42</ele>
      </trkpt>
      <trkpt lat="47.39388" lon="39.68127">
        <ele>83.5</ele>
      </trkpt>
      <trkpt lat="47.39424" lon="39.68262">
        <ele>83.51</ele>
      </trkpt>
      <trkpt lat="47.39374" lon="39.68354">
        <ele>76.93</ele>
      </trkpt>
      <trkpt lat="47.39309" lon="39.68421">
        <ele>73.41</ele>
      </trkpt>
      <trkpt lat="47.39303" lon="39.68459">
        <ele>70.43</ele>
      </trkpt>
      <trkpt lat="47.3927" lon="39.68534">
        <ele>68.17</ele>
      </trkpt>
      <trkpt lat="47.39219" lon="39.68566">
        <ele>61.94</ele>
      </trkpt>
      <trkpt lat="47.39199" lon="39.68646">
        <ele>65.51</ele>
      </trkpt>
      <trkpt lat="47.39153" lon="39.68714">
        <ele>64.88</ele>
      </trkpt>
      <trkpt lat="47.39114" lon="39.68783">
        <ele>69.92</ele>
      </trkpt>
      <trkpt lat="47.39075" lon="39.68892">
        <ele>62.14</ele>
      </trkpt>
      <trkpt lat="47.39215" lon="39.69086">
        <ele>72.74</ele>
      </trkpt>
      <trkpt lat="47.39048" lon="39.69498">
        <ele>62.46</ele>
      </trkpt>
      <trkpt lat="47.38889" lon="39.69972">
        <ele>61.99</ele>
      </trkpt>
      <trkpt lat="47.3884" lon="39.70129">
        <ele>62.9</ele>
      </trkpt>
      <trkpt lat="47.38786" lon="39.70238">
        <ele>58.16</ele>
      </trkpt>
      <trkpt lat="47.38742" lon="39.70379">
        <ele>57.71</ele>
      </trkpt>
      <trkpt lat="47.38617" lon="39.7065">
        <ele>66.1</ele>
      </trkpt>
      <trkpt lat="47.3853" lon="39.70753">
        <ele>64.26</ele>
      </trkpt>
      <trkpt lat="47.38421" lon="39.70862">
        <ele>64.16</ele>
      </trkpt>
      <trkpt lat="47.38254" lon="39.71018">
        <ele>53.56</ele>
      </trkpt>
      <trkpt lat="47.3822" lon="39.7108">
        <ele>55.62</ele>
      </trkpt>
      <trkpt lat="47.38156" lon="39.71165">
        <ele>54.52</ele>
      </trkpt>
      <trkpt lat="47.38103" lon="39.71263">
        <ele>51.57</ele>
      </trkpt>
      <trkpt lat="47.38074" lon="39.71321">
        <ele>57.71</ele>
      </trkpt>
      <trkpt lat="47.38055" lon="39.71381">
        <ele>58.78</ele>
      </trkpt>
      <trkpt lat="47.37668" lon="39.71705">
        <ele>78.17</ele>
      </trkpt>
      <trkpt lat="47.37614" lon="39.71725">
        <ele>74.18</ele>
      </trkpt>
      <trkpt lat="47.37561" lon="39.71716">
        <ele>72.59</ele>
      </trkpt>
      <trkpt lat="47.37275" lon="39.71972">
        <ele>72.4</ele>
      </trkpt>
      <trkpt lat="47.37131" lon="39.721">
        <ele>75.51</ele>
      </trkpt>
      <trkpt lat="47.36748" lon="39.72317">
        <ele>79.76</ele>
      </trkpt>
      <trkpt lat="47.36723" lon="39.72316">
        <ele>84.11</ele>
      </trkpt>
      <trkpt lat="47.36696" lon="39.72303">
        <ele>85.93</ele>
      </trkpt>
      <trkpt lat="47.36677" lon="39.72311">
        <ele>85.05</ele>
      </trkpt>
      <trkpt lat="47.36668" lon="39.72341">
        <ele>82.82</ele>
      </trkpt>
      <trkpt lat="47.3665" lon="39.72368">
        <ele>81.25</ele>
      </trkpt>
      <trkpt lat="47.36634" lon="39.72379">
        <ele>80.41</ele>
      </trkpt>
      <trkpt lat="47.35512" lon="39.73002">
        <ele>86.24</ele>
      </trkpt>
      <trkpt lat="47.35223" lon="39.73143">
        <ele>98.58</ele>
      </trkpt>
      <trkpt lat="47.33799" lon="39.73727">
        <ele>85.61</ele>
      </trkpt>
      <trkpt lat="47.32805" lon="39.74021">
        <ele>96.57</ele>
      </trkpt>
      <trkpt lat="47.32445" lon="39.7407">
        <ele>88.02</ele>
      </trkpt>
      <trkpt lat="47.32406" lon="39.74099">
        <ele>89.51</ele>
      </trkpt>
      <trkpt lat="47.32161" lon="39.74459">
        <ele>92.92</ele>
      </trkpt>
      <trkpt lat="47.31111" lon="39.73036">
        <ele>84.59</ele>
      </trkpt>
      <trkpt lat="47.31066" lon="39.72971">
        <ele>83.68</ele>
      </trkpt>
      <trkpt lat="47.30897" lon="39.72736">
        <ele>76.92</ele>
      </trkpt>
      <trkpt lat="47.3078" lon="39.72595">
        <ele>81.81</ele>
      </trkpt>
      <trkpt lat="47.30559" lon="39.72286">
        <ele>84.6</ele>
      </trkpt>
      <trkpt lat="47.30557" lon="39.72266">
        <ele>86.17</ele>
      </trkpt>
      <trkpt lat="47.30534" lon="39.72234">
        <ele>83.21</ele>
      </trkpt>
      <trkpt lat="47.30511" lon="39.72203">
        <ele>81.77</ele>
      </trkpt>
      <trkpt lat="47.30479" lon="39.72162">
        <ele>79.15</ele>
      </trkpt>
      <trkpt lat="47.30432" lon="39.72119">
        <ele>82.92</ele>
      </trkpt>
      <trkpt lat="47.30237" lon="39.71843">
        <ele>80.16</ele>
      </trkpt>
      <trkpt lat="47.30226" lon="39.71817">
        <ele>80.37</ele>
      </trkpt>
      <trkpt lat="47.30145" lon="39.71852">
        <ele>81.94</ele>
      </trkpt>
      <trkpt lat="47.30137" lon="39.71857">
        <ele>82.99</ele>
      </trkpt>
      <trkpt lat="47.30126" lon="39.71855">
        <ele>83.71</ele>
      </trkpt>
      <trkpt lat="47.30115" lon="39.71849">
        <ele>84.28</ele>
      </trkpt>
      <trkpt lat="47.30098" lon="39.7186">
        <ele>87.75</ele>
      </trkpt>
      <trkpt lat="47.30038" lon="39.71268">
        <ele>77.51</ele>
      </trkpt>
      <trkpt lat="47.3003" lon="39.71237">
        <ele>79.39</ele>
      </trkpt>
      <trkpt lat="47.30017" lon="39.71219">
        <ele>81.71</ele>
      </trkpt>
      <trkpt lat="47.30007" lon="39.71211">
        <ele>83.7</ele>
      </trkpt>
      <trkpt lat="47.29998" lon="39.71208">
        <ele>85.64</ele>
      </trkpt>
      <trkpt lat="47.29603" lon="39.71299">
        <ele>84.3</ele>
      </trkpt>
    </trkseg>
  </trk>
</gpx>
